module toDoList

go 1.16

require (
	github.com/gin-gonic/gin v1.7.1 // indirect
	github.com/go-playground/validator/v10 v10.5.0 // indirect
	github.com/go-sql-driver/mysql v1.6.0 // indirect
	github.com/golang/protobuf v1.5.2 // indirect
	github.com/json-iterator/go v1.1.10 // indirect
	github.com/leodido/go-urn v1.2.1 // indirect
	github.com/modern-go/concurrent v0.0.0-20180306012644-bacd9c7ef1dd // indirect
	github.com/modern-go/reflect2 v1.0.1 // indirect
	github.com/rs/cors v1.7.0 // indirect
	github.com/stretchr/objx v0.3.0 // indirect
	github.com/stretchr/testify v1.7.0 // indirect
	github.com/ugorji/go v1.2.5 // indirect
	golang.org/x/crypto v0.0.0-20210322153248-0c34fe9e7dc2 // indirect
	golang.org/x/sys v0.0.0-20210403161142-5e06dd20ab57 // indirect
	golang.org/x/text v0.3.6 // indirect
	gopkg.in/yaml.v2 v2.4.0 // indirect
	gopkg.in/yaml.v3 v3.0.0-20210107192922-496545a6307b // indirect
	gorm.io/driver/mysql v1.0.5 // indirect
	gorm.io/gorm v1.21.7 // indirect
)
